tidyFlowCore: Bringing flowCore to the tidyverse • tidyFlowCore
…
And tidyFlowCore also makes it easy to perform the counting broken down by other variables in our metadata:

bcr_flowset |> 
  # use the .tidyFlowCore_identifier pronoun to access the name of 
  # each experiment in the flowSet 
  dplyr::count(.tidyFlowCore_identifier, population_id)
#> # A tibble: 128 × 3
#>    .tidyFlowCore_identifier           population_id     n
#>    <chr>                                      <dbl> <int>
#>  1 PBMC8_30min_patient1_BCR-XL.fcs                1    31
#>  2 PBMC8_30min_patient1_BCR-XL.fcs                2   112
#>  3 PBMC8_30min_patient1_BCR-XL.fcs                3   761
#>  4 PBMC8_30min_patient1_BCR-XL.fcs                4  1307
#>  5 PBMC8_30min_patient1_BCR-XL.fcs                5     5
#>  6 PBMC8_30min_patient1_BCR-XL.fcs                6   127
#>  7 PBMC8_30min_patient1_BCR-XL.fcs                7   444
#>  8 PBMC8_30min_patient1_BCR-XL.fcs                8    51
#>  9 PBMC8_30min_patient1_Reference.fcs             1    52
#> 10 PBMC8_30min_patient1_Reference.fcs             2   132
#> # ℹ 118 more rows
…
